…
cities = 
  tibble(city_state = unique(homicide_1$city_state)) %>% 
  mutate(map(.x = unique(homicide_1$city_state), ~city_logistic(.x))) %>% 
  unnest

cities
```

    ## # A tibble: 47 x 5
    ##    city_state      term                    OR conf_low conf_high
    ##    <chr>           <chr>                <dbl>    <dbl>     <dbl>
    ##  1 Albuquerque, NM victim_racenon-white 0.741   0.451      1.22 
    ##  2 Atlanta, GA     victim_racenon-white 0.753   0.432      1.31 
    ##  3 Baltimore, MD   victim_racenon-white 0.441   0.313      0.620
    ##  4 Baton Rouge, LA victim_racenon-white 0.668   0.313      1.43 
    ##  5 Birmingham, AL  victim_racenon-white 1.04    0.615      1.76 
    ##  6 Boston, MA      victim_racenon-white 0.115   0.0472     0.278
    ##  7 Buffalo, NY     victim_racenon-white 0.390   0.213      0.715
    ##  8 Charlotte, NC   victim_racenon-white 0.558   0.321      0.969
    ##  9 Chicago, IL     victim_racenon-white 0.562   0.431      0.733
    ## 10 Cincinnati, OH  victim_racenon-white 0.318   0.184      0.551
    ## # ... with 37 more rows
…
